\relax 
\@writefile{toc}{\contentsline {section}{\numberline {1}General Properties of the Padding Scheme}{1}}
\@writefile{toc}{\contentsline {section}{\numberline {2}Security Notions}{1}}
\@writefile{toc}{\contentsline {subsection}{\numberline {2.1}First Adversary}{1}}
\@writefile{toc}{\contentsline {subsection}{\numberline {2.2}Second Adversary}{2}}
\@writefile{toc}{\contentsline {section}{\numberline {3}Inference Attack}{2}}
\@writefile{toc}{\contentsline {section}{\numberline {4}Operations on the Database}{2}}
\@writefile{toc}{\contentsline {section}{\numberline {5}Padding SSE Schemes on Relational Databases to Negate Inference Attack}{3}}
