\relax 
\@writefile{toc}{\contentsline {section}{\numberline {1}Papers referred to}{1}}
\@writefile{toc}{\contentsline {section}{\numberline {2}FSE revisited}{1}}
\@writefile{toc}{\contentsline {section}{\numberline {3}More on formalising the frequency smoothing problem}{1}}
