\relax 
\@writefile{toc}{\contentsline {section}{\numberline {1}Papers referred to}{1}}
\@writefile{toc}{\contentsline {section}{\numberline {2}Formalising the frequency smoothing problem}{1}}
\@writefile{toc}{\contentsline {section}{\numberline {3}A new OPE scheme}{1}}
\@writefile{toc}{\contentsline {section}{\numberline {4}A weaker OPE scheme}{1}}
