\relax 
\@writefile{toc}{\contentsline {section}{\numberline {1}Outline of the Document}{1}}
\@writefile{toc}{\contentsline {section}{\numberline {2}The 2-dimensional Case}{1}}
\newlabel{cryptographic property}{{1}{1}}
\@writefile{toc}{\contentsline {section}{\numberline {3}Generalization to Higher Dimensions}{2}}
