\relax 
\@writefile{toc}{\contentsline {section}{\numberline {1}Definition of statistical indistinguishability(SI)}{1}}
\@writefile{toc}{\contentsline {section}{\numberline {2}Simple case}{1}}
\@writefile{toc}{\contentsline {section}{\numberline {3}The challenge}{1}}
