\relax 
\@writefile{toc}{\contentsline {section}{\numberline {1}Papers referred to}{1}}
\@writefile{toc}{\contentsline {section}{\numberline {2}Discussion of the reference paper}{1}}
\@writefile{toc}{\contentsline {section}{\numberline {3}New Padding Scheme}{1}}
\@writefile{toc}{\contentsline {subsection}{\numberline {3.1}The idea}{1}}
\@writefile{toc}{\contentsline {subsection}{\numberline {3.2}Main challenge}{1}}
\@writefile{toc}{\contentsline {section}{\numberline {4}Security Notions}{1}}
\@writefile{toc}{\contentsline {subsection}{\numberline {4.1}Adversary for count attack}{1}}
\@writefile{toc}{\contentsline {subsection}{\numberline {4.2}Leakage abuse attack}{2}}
