\relax 
\@writefile{toc}{\contentsline {section}{\numberline {1}Papers referred to}{1}}
\@writefile{toc}{\contentsline {section}{\numberline {2}Bounds on Extended g-leakage}{1}}
\@writefile{toc}{\contentsline {section}{\numberline {3}Results on extended g-leakage}{1}}
\@writefile{toc}{\contentsline {section}{\numberline {4}Further Work}{2}}
