\relax 
\@writefile{toc}{\contentsline {section}{\numberline {1}Papers referred to}{1}}
\@writefile{toc}{\contentsline {section}{\numberline {2}A new OPE scheme}{1}}
\@writefile{toc}{\contentsline {section}{\numberline {3}ORAM}{2}}
\@writefile{toc}{\contentsline {section}{\numberline {4}Syntax of encrypted database}{2}}
